^D:\PROJECT\MIAPR\DIVM_2\DIVM_2\PROPERTIES\RESOURCES.RESX
^D:\PROJECT\MIAPR\DIVM_2\DIVM_2\FORM1.RESX
^D:\PROJECT\DIVM\DIVM_2\DIVM_2\PROPERTIES\RESOURCES.RESX
^D:\PROJECT\DIVM\DIVM_2\DIVM_2\FORM1.RESX
^D:\PROJECT\DIVM\DIVM_2\DIVM_2\WORKFORM.RESX
