^D:\PROJECT\TI\TI_3\TI_3\DEBUG\STDAFX.OBJ|D:\PROJECT\TI\TI_3\TI_3\DEBUG\TI_3.EXE.EMBED.MANIFEST.RES|D:\PROJECT\TI\TI_3\TI_3\DEBUG\TI_3.OBJ
/ERRORREPORT:PROMPT /OUT:"D:\Project\TI\TI_3\Debug\TI_3.exe" /INCREMENTAL /NOLOGO kernel32.lib user32.lib gdi32.lib winspool.lib comdlg32.lib advapi32.lib shell32.lib ole32.lib oleaut32.lib uuid.lib odbc32.lib odbccp32.lib /MANIFEST /ManifestFile:"Debug\TI_3.exe.intermediate.manifest" /MANIFESTUAC:"level='asInvoker' uiAccess='false'" /DEBUG /PDB:"D:\Project\TI\TI_3\Debug\TI_3.pdb" /SUBSYSTEM:CONSOLE /TLBID:1 /DYNAMICBASE /NXCOMPAT /IMPLIB:"D:\Project\TI\TI_3\Debug\TI_3.lib" /MACHINE:X86 Debug\TI_3.exe.embed.manifest.res
Debug\stdafx.obj
Debug\TI_3.obj
