

HI-TECH Software PIC LITE Macro Assembler V9.70 build 5239 
                                                                                               Sun Apr 13 23:48:55 2014

HI-TECH Software Omniscient Code Generator (Lite mode) build 5239
     1  0000                     opt subtitle "HI-TECH Software Omniscient Code Generator (Lite mode) build 5239"
     2                           
     3                           opt pagewidth 120
     4                           
     5                           	opt lm
     6                           
     7                           	processor	16F84A
     8                           clrc	macro
     9                           	bcf	3,0
    10  0000                     	endm
    11                           clrz	macro
    12                           	bcf	3,2
    13  0000                     	endm
    14                           setc	macro
    15                           	bsf	3,0
    16  0000                     	endm
    17                           setz	macro
    18                           	bsf	3,2
    19  0000                     	endm
    20                           skipc	macro
    21                           	btfss	3,0
    22  0000                     	endm
    23                           skipz	macro
    24                           	btfss	3,2
    25  0000                     	endm
    26                           skipnc	macro
    27                           	btfsc	3,0
    28  0000                     	endm
    29                           skipnz	macro
    30                           	btfsc	3,2
    31  0000                     	endm
    32  0000                     indf	equ	0
    33  0000                     indf0	equ	0
    34  0002                     pc	equ	2
    35  0002                     pcl	equ	2
    36  0003                     status	equ	3
    37  0004                     fsr	equ	4
    38  0004                     fsr0	equ	4
    39  0001                     c	equ	1
    40  0000                     z	equ	0
    41  000A                     pclath	equ	10
    42                           ;BANK0:	_main->_butState
    43                           	FNCALL	_main,_butState
    44                           	FNROOT	_main
    45                           	FNCALL	intlevel1,_ISR
    46                           	global	intlevel1
    47                           	FNROOT	intlevel1
    48                           	global	main@_LCDBLABLA
    49                           psect	nvBANK0,class=BANK0,space=1
    50                           global __pnvBANK0
    51  0021                     __pnvBANK0:
    52  0021                     main@_LCDBLABLA:
    53  0021                            ds      2
    54                           
    55                           	global	main@_LCDCON
    56  0023                     main@_LCDCON:
    57  0023                            ds      2
    58                           
    59                           	global	main@_LCDPS
    60  0025                     main@_LCDPS:
    61  0025                            ds      2
    62                           
    63                           	global	main@_LCDSE
    64  0027                     main@_LCDSE:
    65  0027                            ds      2
    66                           
    67                           	global	_EEADR
    68  0009                     _EEADR  equ     9
    69                           	global	_EEDATA
    70  0008                     _EEDATA  equ     8
    71                           	global	_FSR
    72  0004                     _FSR  equ     4
    73                           	global	_INDF
    74  0000                     _INDF  equ     0
    75                           	global	_INTCON
    76  000B                     _INTCON  equ     11
    77                           	global	_PCL
    78  0002                     _PCL  equ     2
    79                           	global	_PCLATH
    80  000A                     _PCLATH  equ     10
    81                           	global	_PORTA
    82  0005                     _PORTA  equ     5
    83                           	global	_PORTB
    84  0006                     _PORTB  equ     6
    85                           	global	_RTCC
    86  0001                     _RTCC  equ     1
    87                           	global	_STATUS
    88  0003                     _STATUS  equ     3
    89                           	global	_TMR0
    90  0001                     _TMR0  equ     1
    91                           	global	_CARRY
    92  0018                     _CARRY  equ     24
    93                           	global	_DC
    94  0019                     _DC  equ     25
    95                           	global	_EEIE
    96  005E                     _EEIE  equ     94
    97                           	global	_GIE
    98  005F                     _GIE  equ     95
    99                           	global	_INT
   100  0030                     _INT  equ     48
   101                           	global	_INTE
   102  005C                     _INTE  equ     92
   103                           	global	_INTF
   104  0059                     _INTF  equ     89
   105                           	global	_PD
   106  001B                     _PD  equ     27
   107                           	global	_RA0
   108  0028                     _RA0  equ     40
   109                           	global	_RA1
   110  0029                     _RA1  equ     41
   111                           	global	_RA2
   112  002A                     _RA2  equ     42
   113                           	global	_RA3
   114  002B                     _RA3  equ     43
   115                           	global	_RA4
   116  002C                     _RA4  equ     44
   117                           	global	_RB0
   118  0030                     _RB0  equ     48
   119                           	global	_RB1
   120  0031                     _RB1  equ     49
   121                           	global	_RB2
   122  0032                     _RB2  equ     50
   123                           	global	_RB3
   124  0033                     _RB3  equ     51
   125                           	global	_RB4
   126  0034                     _RB4  equ     52
   127                           	global	_RB5
   128  0035                     _RB5  equ     53
   129                           	global	_RB6
   130  0036                     _RB6  equ     54
   131                           	global	_RB7
   132  0037                     _RB7  equ     55
   133                           	global	_RBIE
   134  005B                     _RBIE  equ     91
   135                           	global	_RBIF
   136  0058                     _RBIF  equ     88
   137                           	global	_RP0
   138  001D                     _RP0  equ     29
   139                           	global	_T0IE
   140  005D                     _T0IE  equ     93
   141                           	global	_T0IF
   142  005A                     _T0IF  equ     90
   143                           	global	_TO
   144  001C                     _TO  equ     28
   145                           	global	_ZERO
   146  001A                     _ZERO  equ     26
   147                           	global	_EECON1
   148  0088                     _EECON1  equ     136
   149                           	global	_EECON2
   150  0089                     _EECON2  equ     137
   151                           	global	_OPTION
   152  0081                     _OPTION  equ     129
   153                           	global	_TRISA
   154  0085                     _TRISA  equ     133
   155                           	global	_TRISB
   156  0086                     _TRISB  equ     134
   157                           	global	_EEIF
   158  0444                     _EEIF  equ     1092
   159                           	global	_INTEDG
   160  040E                     _INTEDG  equ     1038
   161                           	global	_PS0
   162  0408                     _PS0  equ     1032
   163                           	global	_PS1
   164  0409                     _PS1  equ     1033
   165                           	global	_PS2
   166  040A                     _PS2  equ     1034
   167                           	global	_PSA
   168  040B                     _PSA  equ     1035
   169                           	global	_RBPU
   170  040F                     _RBPU  equ     1039
   171                           	global	_RD
   172  0440                     _RD  equ     1088
   173                           	global	_T0CS
   174  040D                     _T0CS  equ     1037
   175                           	global	_T0SE
   176  040C                     _T0SE  equ     1036
   177                           	global	_TRISA0
   178  0428                     _TRISA0  equ     1064
   179                           	global	_TRISA1
   180  0429                     _TRISA1  equ     1065
   181                           	global	_TRISA2
   182  042A                     _TRISA2  equ     1066
   183                           	global	_TRISA3
   184  042B                     _TRISA3  equ     1067
   185                           	global	_TRISA4
   186  042C                     _TRISA4  equ     1068
   187                           	global	_TRISB0
   188  0430                     _TRISB0  equ     1072
   189                           	global	_TRISB1
   190  0431                     _TRISB1  equ     1073
   191                           	global	_TRISB2
   192  0432                     _TRISB2  equ     1074
   193                           	global	_TRISB3
   194  0433                     _TRISB3  equ     1075
   195                           	global	_TRISB4
   196  0434                     _TRISB4  equ     1076
   197                           	global	_TRISB5
   198  0435                     _TRISB5  equ     1077
   199                           	global	_TRISB6
   200  0436                     _TRISB6  equ     1078
   201                           	global	_TRISB7
   202  0437                     _TRISB7  equ     1079
   203                           	global	_WR
   204  0441                     _WR  equ     1089
   205                           	global	_WREN
   206  0442                     _WREN  equ     1090
   207                           	global	_WRERR
   208  0443                     _WRERR  equ     1091
   209                           	file	"laba_6.as"
   210                           	line	#
   211                           psect cinit,class=CODE,delta=2
   212                           global start_initialization
   213  00C5                     start_initialization:
   214+                          
   215+                          psect cinit,class=CODE,delta=2
   216+                          global end_of_initialization
   217+                          
   218+                          ;End of C runtime variable initationation code
   219+                          
   220+ 00C5                     end_of_initialization:
   221  00C5  0183               clrf status
   222  00C6  2810               ljmp _main	;jump to C main() function
   223+                          psect	cstackCOMMON,class=COMMON,space=1
   224+                          global __pcstackCOMMON
   225+ 004E                     __pcstackCOMMON:
   226+                          	global	??_butState
   227+ 004E                     ??_butState: ;@ 0x0
   228                           psect	cstackBANK0,class=BANK0,space=1
   229                           global __pcstackBANK0
   230  000C                     __pcstackBANK0:
   231+                          	global	butState@result
   232+ 000C                     butState@result:	; 2 bytes @ 0x0
   233  000C                     	ds	2
   234+                          	global	?_butState
   235+ 000E                     ?_butState: ;@ 0x2
   236  000E                     	ds	2
   237+                          	global	??_main
   238+ 0010                     ??_main: ;@ 0x4
   239+ 0010                     	ds	1
   240+                          	global	main@stop
   241+ 0011                     main@stop:	; 2 bytes @ 0x5
   242+ 0011                     	ds	2
   243+                          	global	main@butLastState
   244+ 0013                     main@butLastState:	; 2 bytes @ 0x7
   245  0013                     	ds	2
   246                           	global	main@j
   247  0015                     main@j:	; 2 bytes @ 0x9
   248+ 0015                     	ds	2
   249+                          	global	main@i
   250+ 0017                     main@i:	; 2 bytes @ 0xB
   251+ 0017                     	ds	2
   252+                          	global	main@state
   253+ 0019                     main@state:	; 2 bytes @ 0xD
   254  0019                     	ds	2
   255+                          	global	??_ISR
   256+ 001B                     ??_ISR: ;@ 0xF
   257                           	global	?_main
   258  001B                     ?_main: ;@ 0xF
   259+ 001B                     	ds	4
   260+                          	global	ISR@a
   261+ 001F                     ISR@a:	; 2 bytes @ 0x13
   262+ 001F                     	ds	2
   263+                          	global	?_ISR
   264+ 0021                     ?_ISR: ;@ 0x15
   265+                          ;Data sizes: Strings 0, constant 0, data 0, bss 0, persistent 8 stack 0
   266+                          ;Auto spaces:   Size  Autos    Used
   267+                          ; COMMON           0      0       0
   268+                          ; BANK0           66     21      29
   269+                          
   270+                          
   271+                          ;Pointer list with targets:
   272+                          
   273+                          ;?_butState	int  size(1); Largest target is 0
   274+                          
   275+                          
   276+                          ;Main: autosize = 0, tempsize = 1, incstack = 0, save=0
   277+                          
   278+                          
   279+                          ;Call graph:                      Base Space Used Autos Args Refs Density
   280+                          ;_main                                               11    0  142   0.00
   281+                          ;                                    4 BANK0   11
   282+                          ;           _butState
   283+                          ;  _butState                                          2    2   19   0.00
   284+                          ;                                    0 BANK0    4
   285+                          ; Estimated maximum call depth 1
   286+                          ;_ISR                                                 6    0    0   0.00
   287+                          ;                                   15 BANK0    6
   288+                          ; Estimated maximum call depth 0
   289+                          ; Address spaces:
   290+                          
   291+                          ;Name               Size   Autos  Total    Cost      Usage
   292+                          ;BITCOMMON            0      0       0       0        0.0%
   293+                          ;NULL                 0      0       0       0        0.0%
   294+                          ;CODE                 0      0       0       0        0.0%
   295+                          ;COMMON               0      0       0       1        0.0%
   296+                          ;SFR0                 0      0       0       1        0.0%
   297+                          ;BITSFR0              0      0       0       1        0.0%
   298+                          ;SFR1                 0      0       0       2        0.0%
   299+                          ;BITSFR1              0      0       0       2        0.0%
   300+                          ;STACK                0      0       0       2        0.0%
   301+                          ;BITBANK0            42      0       0       3        0.0%
   302+                          ;BANK0               42     15      1D       4       43.9%
   303+                          ;ABS                  0      0      1D       5        0.0%
   304+                          ;DATA                 0      0      1D       6        0.0%
   305+                          ;EEDATA              40      0       0    1000        0.0%
   306+                          
   307+                          	global	_main
   308+                          psect	maintext,local,class=CODE,delta=2
   309+                          global __pmaintext
   310+ 0010                     __pmaintext:
   311                           
   312                           ; *************** function _main *****************
   313                           ; Defined at:
   314                           ;		line 69 in file "D:\Univer\Labs\laba_6\main.c"
   315                           ; Parameters:    Size  Location     Type
   316                           ;		None
   317                           ; Auto vars:     Size  Location     Type
   318                           ;  state           2   13[BANK0 ] int 
   319                           ;  j               2    9[BANK0 ] int 
   320                           ;  i               2   11[BANK0 ] int 
   321                           ;  stop            2    5[BANK0 ] int 
   322                           ;  butLastState    2    7[BANK0 ] int 
   323                           ; Return value:  Size  Location     Type
   324                           ;                  2   15[BANK0 ] int 
   325                           ; Registers used:
   326                           ;		wreg, status,2, status,0, pclath, cstack
   327                           ; Tracked objects:
   328                           ;		On entry : 17F/0
   329                           ;		On exit  : 0/0
   330                           ;		Unchanged: 0/0
   331                           ; Data sizes:     COMMON   BANK0
   332                           ;      Locals:         0      11
   333                           ;      Temp:     1
   334                           ;      Total:   11
   335                           ; This function calls:
   336                           ;		_butState
   337                           ; This function is called by:
   338                           ;		Startup code after reset
   339                           ; This function uses a non-reentrant model
   340                           ; 
   341                           psect	maintext
   342                           	file	"D:\Univer\Labs\laba_6\main.c"
   343                           	line	69
   344                           	global	__size_of_main
   345  0083                     	__size_of_main	equ	__end_of_main-_main
   346+                          ;main.c: 69: main(){
   347+                          	
   348+ 0010                     _main:	
   349+                          	opt stack 7
   350+                          ; Regs used in _main: [wreg+status,2+status,0+pclath+cstack]
   351+                          	line	70
   352+                          	
   353+ 0010                     l30000208:	
   354+                          ;main.c: 70: TRISB=0;
   355+ 0010  1003               	clrc
   356+ 0011  3000               	movlw	0
   357+ 0012  1803               	btfsc	status,0
   358  0013  3001               	movlw	1
   359+ 0014  1683               	bsf	status, 5	;RP0=1, select bank1
   360  0015  0086               	movwf	(134)^080h	;volatile
   361+                          	line	71
   362+                          ;main.c: 71: TRISA = 0;
   363+ 0016  1003               	clrc
   364+ 0017  3000               	movlw	0
   365+ 0018  1803               	btfsc	status,0
   366+ 0019  3001               	movlw	1
   367+ 001A  0085               	movwf	(133)^080h	;volatile
   368                           	
   369  001B                     l30000209:	
   370+                          	line	74
   371+                          ;main.c: 74: int butLastState = 1;
   372+ 001B  3001               	movlw	low(01h)
   373+ 001C  1283               	bcf	status, 5	;RP0=0, select bank0
   374+ 001D  0093               	movwf	(main@butLastState)
   375+ 001E  3000               	movlw	high(01h)
   376+ 001F  0094               	movwf	((main@butLastState))+1
   377                           	
   378  0020                     l30000210:	
   379+                          	line	75
   380+                          ;main.c: 75: int stop = 0;
   381+ 0020  3000               	movlw	low(0)
   382  0021  0091               	movwf	(main@stop)
   383+ 0022  3000               	movlw	high(0)
   384+ 0023  0092               	movwf	((main@stop))+1
   385+                          	
   386+ 0024                     l30000211:	
   387+                          	
   388+ 0024                     l30000212:	
   389+                          	
   390+ 0024                     l30000213:	
   391                           	line	78
   392                           ;main.c: 78: LCDCON = 0x0F;
   393  0024  300F               	movlw	low(0Fh)
   394+ 0025  00A3               	movwf	(main@_LCDCON)
   395+ 0026  3000               	movlw	high(0Fh)
   396+ 0027  00A4               	movwf	((main@_LCDCON))+1
   397+                          	
   398+ 0028                     l30000214:	
   399+                          	line	79
   400+                          ;main.c: 79: LCDSE = 0x55;
   401+ 0028  3055               	movlw	low(055h)
   402  0029  00A7               	movwf	(main@_LCDSE)
   403+ 002A  3000               	movlw	high(055h)
   404  002B  00A8               	movwf	((main@_LCDSE))+1
   405+                          	
   406+ 002C                     l30000215:	
   407+                          	line	80
   408+                          ;main.c: 80: LCDPS = 0xF5;
   409+ 002C  30F5               	movlw	low(0F5h)
   410+ 002D  00A5               	movwf	(main@_LCDPS)
   411+ 002E  3000               	movlw	high(0F5h)
   412+ 002F  00A6               	movwf	((main@_LCDPS))+1
   413                           	
   414  0030                     l30000216:	
   415+                          	line	81
   416+                          ;main.c: 81: LCDBLABLA = 0x1F;
   417+ 0030  301F               	movlw	low(01Fh)
   418+ 0031  00A1               	movwf	(main@_LCDBLABLA)
   419+ 0032  3000               	movlw	high(01Fh)
   420  0033  00A2               	movwf	((main@_LCDBLABLA))+1
   421+                          	
   422+ 0034                     l30000217:	
   423                           	line	83
   424                           ;main.c: 83: i = 0;
   425  0034  3000               	movlw	low(0)
   426+ 0035  1283               	bcf	status, 5	;RP0=0, select bank0
   427  0036  0097               	movwf	(main@i)
   428+ 0037  3000               	movlw	high(0)
   429+ 0038  0098               	movwf	((main@i))+1
   430+ 0039  2884               	goto	l38
   431+                          	
   432+ 003A                     l30000218:	
   433+                          	line	85
   434+                          ;main.c: 85: j = 0;
   435+ 003A  3000               	movlw	low(0)
   436  003B  1283               	bcf	status, 5	;RP0=0, select bank0
   437+ 003C  0095               	movwf	(main@j)
   438+ 003D  3000               	movlw	high(0)
   439+ 003E  0096               	movwf	((main@j))+1
   440+ 003F  286A               	goto	l30000225
   441+                          	
   442+ 0040                     l42:	
   443                           	line	87
   444                           # 87 "D:\Univer\Labs\laba_6\main.c"
   445  0040  0064               CLRWDT ;#
   446+                          psect	maintext
   447+                          	
   448+ 0041                     l30000219:	
   449                           	line	88
   450                           ;main.c: 88: int state = butState();
   451  0041  20AF               	fcall	_butState
   452+ 0042  1383               	bcf	status, 7	;select IRP bank0
   453+ 0043  1283               	bcf	status, 5	;RP0=0, select bank0
   454+ 0044  080F               	movf	(1+(?_butState)),w
   455+ 0045  019A               	clrf	(main@state+1)
   456+ 0046  079A               	addwf	(main@state+1)
   457  0047  080E               	movf	(0+(?_butState)),w
   458  0048  0199               	clrf	(main@state)
   459  0049  0799               	addwf	(main@state)
   460                           
   461                           	
   462  004A                     l30000220:	
   463                           	line	89
   464                           ;main.c: 89: if ((state != butLastState) & !state)
   465  004A  0814               	movf	(main@butLastState+1),w
   466  004B  061A               	xorwf	(main@state+1),w
   467  004C  1D03               	skipz
   468  004D  2850               	goto	u105
   469  004E  0813               	movf	(main@butLastState),w
   470  004F  0619               	xorwf	(main@state),w
   471  0050                     u105:
   472                           
   473  0050  1903               	skipnz
   474  0051  2853               	goto	u101
   475  0052  2854               	goto	u100
   476  0053                     u101:
   477  0053  285E               	goto	l30000223
   478  0054                     u100:
   479                           	
   480  0054                     l30000221:	
   481  0054  081A               	movf	((main@state+1)),w
   482  0055  0419               	iorwf	((main@state)),w
   483  0056  1D03               	skipz
   484  0057  2859               	goto	u111
   485  0058  285A               	goto	u110
   486  0059                     u111:
   487  0059  285E               	goto	l30000223
   488  005A                     u110:
   489                           	
   490  005A                     l30000222:	
   491                           	line	90
   492                           ;main.c: 90: stop ^= 1;
   493  005A  3001               	movlw	low(01h)
   494  005B  0691               	xorwf	(main@stop),f
   495  005C  3000               	movlw	high(01h)
   496  005D  0692               	xorwf	(main@stop+1),f
   497                           	
   498  005E                     l30000223:	
   499                           	line	91
   500                           ;main.c: 91: butLastState = state;
   501  005E  081A               	movf	(main@state+1),w
   502  005F  0194               	clrf	(main@butLastState+1)
   503  0060  0794               	addwf	(main@butLastState+1)
   504  0061  0819               	movf	(main@state),w
   505  0062  0193               	clrf	(main@butLastState)
   506  0063  0793               	addwf	(main@butLastState)
   507                           
   508                           	
   509  0064                     l30000224:	
   510                           	line	95
   511                           ;main.c: 95: j++;
   512  0064  3001               	movlw	low(01h)
   513  0065  0795               	addwf	(main@j),f
   514  0066  1803               	skipnc
   515  0067  0A96               	incf	(main@j+1),f
   516  0068  3000               	movlw	high(01h)
   517  0069  0796               	addwf	(main@j+1),f
   518                           	
   519  006A                     l30000225:	
   520                           	line	86
   521  006A  0816               	movf	(main@j+1),w
   522  006B  3A80               	xorlw	80h
   523  006C  0090               	movwf	(??_main+0+0)
   524  006D  3080               	movlw	(high(032h))^80h
   525  006E  0210               	subwf	(??_main+0+0),w
   526  006F  1D03               	skipz
   527  0070  2873               	goto	u125
   528  0071  3032               	movlw	low(032h)
   529  0072  0215               	subwf	(main@j),w
   530  0073                     u125:
   531                           
   532  0073  1C03               	skipc
   533  0074  2876               	goto	u121
   534  0075  2877               	goto	u120
   535  0076                     u121:
   536  0076  2840               	goto	l42
   537  0077                     u120:
   538                           	
   539  0077                     l30000226:	
   540                           	line	97
   541                           ;main.c: 96: }
   542                           ;main.c: 97: if (!stop)
   543  0077  1283               	bcf	status, 5	;RP0=0, select bank0
   544  0078  0812               	movf	((main@stop+1)),w
   545  0079  0411               	iorwf	((main@stop)),w
   546  007A  1D03               	skipz
   547  007B  287D               	goto	u131
   548  007C  287E               	goto	u130
   549  007D                     u131:
   550  007D  2884               	goto	l38
   551  007E                     u130:
   552                           	
   553  007E                     l30000227:	
   554                           	line	98
   555                           ;main.c: 98: i++;
   556  007E  3001               	movlw	low(01h)
   557  007F  0797               	addwf	(main@i),f
   558  0080  1803               	skipnc
   559  0081  0A98               	incf	(main@i+1),f
   560  0082  3000               	movlw	high(01h)
   561  0083  0798               	addwf	(main@i+1),f
   562                           	
   563  0084                     l38:	
   564                           	line	84
   565  0084  0818               	movf	(main@i+1),w
   566  0085  3A80               	xorlw	80h
   567  0086  0090               	movwf	(??_main+0+0)
   568  0087  3080               	movlw	(high(010h))^80h
   569  0088  0210               	subwf	(??_main+0+0),w
   570  0089  1D03               	skipz
   571  008A  288D               	goto	u145
   572  008B  3010               	movlw	low(010h)
   573  008C  0217               	subwf	(main@i),w
   574  008D                     u145:
   575                           
   576  008D  1C03               	skipc
   577  008E  2890               	goto	u141
   578  008F  2891               	goto	u140
   579  0090                     u141:
   580  0090  283A               	goto	l30000218
   581  0091                     u140:
   582  0091  2834               	goto	l30000217
   583                           	global	start
   584  0092  280F               	ljmp	start
   585                           	opt stack 0
   586                           GLOBAL	__end_of_main
   587  0093                     	__end_of_main:
   588                           ; =============== function _main ends ============
   589                           
   590                           psect	maintext
   591                           	line	101
   592                           	signat	_main,90
   593                           	global	_butState
   594                           psect	text17,local,class=CODE,delta=2
   595                           global __ptext17
   596  00AF                     __ptext17:
   597                           
   598                           ; *************** function _butState *****************
   599                           ; Defined at:
   600                           ;		line 44 in file "D:\Univer\Labs\laba_6\main.c"
   601                           ; Parameters:    Size  Location     Type
   602                           ;		None
   603                           ; Auto vars:     Size  Location     Type
   604                           ;  result          2    0[BANK0 ] int 
   605                           ; Return value:  Size  Location     Type
   606                           ;                  2    2[BANK0 ] int 
   607                           ; Registers used:
   608                           ;		wreg, status,2, status,0
   609                           ; Tracked objects:
   610                           ;		On entry : 0/0
   611                           ;		On exit  : 0/0
   612                           ;		Unchanged: 0/0
   613                           ; Data sizes:     COMMON   BANK0
   614                           ;      Locals:         0       4
   615                           ;      Temp:     0
   616                           ;      Total:    4
   617                           ; This function calls:
   618                           ;		Nothing
   619                           ; This function is called by:
   620                           ;		_main
   621                           ; This function uses a non-reentrant model
   622                           ; 
   623                           psect	text17
   624                           	file	"D:\Univer\Labs\laba_6\main.c"
   625                           	line	44
   626                           	global	__size_of_butState
   627  0016                     	__size_of_butState	equ	__end_of_butState-_butState
   628                           ;main.c: 44: int butState(){
   629                           	
   630  00AF                     _butState:	
   631                           	opt stack 6
   632                           ; Regs used in _butState: [wreg+status,2+status,0]
   633                           	
   634  00AF                     l30000201:	
   635                           	
   636  00AF                     l30000202:	
   637                           	line	46
   638                           ;main.c: 46: PORTB |= 1;
   639  00AF  1283               	bcf	status, 5	;RP0=0, select bank0
   640  00B0  1406               	bsf	(6)+(0/8),(0)&7	;volatile
   641                           	
   642  00B1                     l30000203:	
   643                           	line	47
   644                           ;main.c: 47: if (PORTB & 1)
   645  00B1  1C06               	btfss	(6),(0)&7	;volatile
   646  00B2  28B4               	goto	u91
   647  00B3  28B5               	goto	u90
   648  00B4                     u91:
   649  00B4  28BA               	goto	l30000205
   650  00B5                     u90:
   651                           	
   652  00B5                     l30000204:	
   653                           	line	48
   654                           ;main.c: 48: result = 0;
   655  00B5  3000               	movlw	low(0)
   656  00B6  008C               	movwf	(butState@result)
   657  00B7  3000               	movlw	high(0)
   658  00B8  008D               	movwf	((butState@result))+1
   659  00B9  28BE               	goto	l30000206
   660                           	
   661  00BA                     l30000205:	
   662                           	line	50
   663                           ;main.c: 49: else
   664                           ;main.c: 50: result = 1;
   665  00BA  3001               	movlw	low(01h)
   666  00BB  008C               	movwf	(butState@result)
   667  00BC  3000               	movlw	high(01h)
   668  00BD  008D               	movwf	((butState@result))+1
   669                           	
   670  00BE                     l30000206:	
   671                           	line	51
   672                           ;main.c: 51: return result;
   673  00BE  080D               	movf	(butState@result+1),w
   674  00BF  018F               	clrf	(?_butState+1)
   675  00C0  078F               	addwf	(?_butState+1)
   676  00C1  080C               	movf	(butState@result),w
   677  00C2  018E               	clrf	(?_butState)
   678  00C3  078E               	addwf	(?_butState)
   679                           
   680                           	
   681  00C4                     l28:	
   682  00C4  0008               	return
   683                           	opt stack 0
   684                           GLOBAL	__end_of_butState
   685  00C5                     	__end_of_butState:
   686                           ; =============== function _butState ends ============
   687                           
   688                           psect	text18,local,class=CODE,delta=2
   689                           global __ptext18
   690  0093                     __ptext18:
   691                           	line	52
   692                           	signat	_butState,90
   693                           	global	_ISR
   694                           
   695                           ; *************** function _ISR *****************
   696                           ; Defined at:
   697                           ;		line 53 in file "D:\Univer\Labs\laba_6\main.c"
   698                           ; Parameters:    Size  Location     Type
   699                           ;		None
   700                           ; Auto vars:     Size  Location     Type
   701                           ;  a               2   19[BANK0 ] int 
   702                           ; Return value:  Size  Location     Type
   703                           ;		None               void
   704                           ; Registers used:
   705                           ;		wreg
   706                           ; Tracked objects:
   707                           ;		On entry : 0/0
   708                           ;		On exit  : 0/0
   709                           ;		Unchanged: 0/0
   710                           ; Data sizes:     COMMON   BANK0
   711                           ;      Locals:         0       6
   712                           ;      Temp:     4
   713                           ;      Total:    6
   714                           ; This function calls:
   715                           ;		Nothing
   716                           ; This function is called by:
   717                           ;		Interrupt level 1
   718                           ; This function uses a non-reentrant model
   719                           ; 
   720                           psect	text18
   721                           	file	"D:\Univer\Labs\laba_6\main.c"
   722                           	line	53
   723                           	global	__size_of_ISR
   724  001C                     	__size_of_ISR	equ	__end_of_ISR-_ISR
   725                           ;main.c: 53: void interrupt ISR(){
   726                           	
   727  0093                     _ISR:	
   728                           	opt stack 7
   729                           ; Regs used in _ISR: [wreg]
   730                           psect	intentry,class=CODE,delta=2
   731                           global __pintentry
   732  0004                     __pintentry:
   733                           global interrupt_function
   734  0004                     interrupt_function:
   735                           	global saved_w
   736  004F                     	saved_w	set	btemp+1
   737  0004  00CF               	movwf	saved_w
   738  0005  0803               	movf	status,w
   739  0006  1283               	bcf	status, 5	;RP0=0, select bank0
   740  0007  009B               	movwf	(??_ISR+0)
   741  0008  0804               	movf	fsr0,w
   742  0009  009C               	movwf	(??_ISR+1)
   743  000A  080A               	movf	pclath,w
   744  000B  009D               	movwf	(??_ISR+2)
   745  000C  084E               	movf	btemp+0,w
   746  000D  009E               	movwf	(??_ISR+3)
   747  000E  2893               	ljmp	_ISR
   748                           psect	text18
   749                           	line	54
   750                           	
   751  0093                     i1l30000177:	
   752                           ;main.c: 54: if(T0IE && T0IF){
   753  0093  1E8B               	btfss	(93/8),(93)&7
   754  0094  2896               	goto	u2_21
   755  0095  2897               	goto	u2_20
   756  0096                     u2_21:
   757  0096  28A4               	goto	i1l31
   758  0097                     u2_20:
   759                           	
   760  0097                     i1l30000178:	
   761  0097  1D0B               	btfss	(90/8),(90)&7
   762  0098  289A               	goto	u3_21
   763  0099  289B               	goto	u3_20
   764  009A                     u3_21:
   765  009A  28A4               	goto	i1l31
   766  009B                     u3_20:
   767                           	
   768  009B                     i1l30000179:	
   769                           	line	55
   770                           ;main.c: 55: T0IF = 0;
   771  009B  110B               	bcf	(90/8),(90)&7
   772                           	
   773  009C                     i1l30000180:	
   774                           	line	56
   775                           ;main.c: 56: int a = 0;
   776  009C  3000               	movlw	low(0)
   777  009D  009F               	movwf	(ISR@a)
   778  009E  3000               	movlw	high(0)
   779  009F  00A0               	movwf	((ISR@a))+1
   780                           	line	57
   781                           ;main.c: 57: a = 8;
   782  00A0  3008               	movlw	low(08h)
   783  00A1  009F               	movwf	(ISR@a)
   784  00A2  3000               	movlw	high(08h)
   785  00A3  00A0               	movwf	((ISR@a))+1
   786                           	
   787  00A4                     i1l31:	
   788  00A4  081E               	movf	(??_ISR+3),w
   789  00A5  00CE               	movwf	btemp+0
   790  00A6  081D               	movf	(??_ISR+2),w
   791  00A7  008A               	movwf	pclath
   792  00A8  081C               	movf	(??_ISR+1),w
   793  00A9  0084               	movwf	fsr0
   794  00AA  081B               	movf	(??_ISR+0),w
   795  00AB  0083               	movwf	status
   796  00AC  0ECF               	swapf	saved_w,f
   797  00AD  0E4F               	swapf	saved_w,w
   798  00AE  0009               	retfie
   799                           	opt stack 0
   800                           GLOBAL	__end_of_ISR
   801  00AF                     	__end_of_ISR:
   802                           ; =============== function _ISR ends ============
   803                           
   804                           psect	text19,local,class=CODE,delta=2
   805                           global __ptext19
   806  00C7                     __ptext19:
   807                           	line	59
   808                           	signat	_ISR,88
   809                           	global	btemp
   810  004E                     	btemp set 04Eh


HI-TECH Software PICC Macro Assembler V9.70 build 5239 
Symbol Table                                                                                   Sun Apr 13 23:48:55 2014

                  _DC 0019                    l42 0040                    l28 00C4                    l38 0084  
                  _PD 001B                    _RD 0440                    _TO 001C                    u90 00B5  
                  u91 00B4                    _WR 0441                   _GIE 005F                   _RA0 0028  
                 _RA1 0029                   _RB0 0030                   _RA2 002A                   _RB1 0031  
                 _RA3 002B                   _RB2 0032                   _RA4 002C                   _RB3 0033  
                 _RB4 0034                   _RB5 0035                   _RB6 0036                   _RB7 0037  
                 u100 0054                   u101 0053                   u110 005A                   u111 0059  
                 u120 0077                   u121 0076                   u105 0050                   u130 007E  
                 u131 007D                   u140 0091                   u141 0090                   u125 0073  
                 _FSR 0004                   u145 008D                   _PCL 0002                   _INT 0030  
                 _PS0 0408                   _PS1 0409                   _PS2 040A                   _RP0 001D  
                 _ISR 0093                   _PSA 040B                   fsr0 0004                  ?_ISR 0021  
                ISR@a 001F              __ptext17 00AF              __ptext18 0093              __ptext19 00C7  
                _EEIE 005E                  _EEIF 0444                  _T0IE 005D                  _T0IF 005A  
                _T0CS 040D                  _T0SE 040C                  _INDF 0000                  _INTE 005C  
                _INTF 0059                  i1l31 00A4                  _RBIE 005B                  _RBIF 0058  
                _RBPU 040F                  _TMR0 0001                  _RTCC 0001                  _ZERO 001A  
                _WREN 0442                  u2_20 0097                  u2_21 0096                  u3_20 009B  
                u3_21 009A              _butState 00AF                  _main 0010                  btemp 004E  
           ?_butState 000E                  start 000F            main@_LCDSE 0027            main@_LCDPS 0025  
   interrupt_function 0004            ??_butState 004E   start_initialization 00C5             __pnvBANK0 0021  
               ??_ISR 001B                 ?_main 001B                 _EEADR 0009                 _CARRY 0018  
            main@stop 0011     __size_of_butState 0016                 _PORTA 0005                 _PORTB 0006  
               _TRISA 0085                 _TRISB 0086                 _WRERR 0443        __pcstackCOMMON 004E  
               main@i 0017                 main@j 0015                 pclath 000A              intlevel1 0004  
               status 0003        butState@result 000C           main@_LCDCON 0023         __size_of_main 0083  
            l30000201 00AF              l30000202 00AF              l30000210 0020              l30000203 00B1  
            l30000211 0024              l30000204 00B5              l30000220 004A              l30000212 0024  
            l30000205 00BA              l30000221 0054              l30000213 0024              l30000206 00BE  
            l30000222 005A              l30000214 0028              l30000223 005E              l30000215 002C  
            l30000224 0064              l30000216 0030              l30000208 0010              l30000225 006A  
            l30000217 0034              l30000209 001B              l30000226 0077              l30000218 003A  
            l30000227 007E              l30000219 0041                ??_main 0010            __pmaintext 0010  
          __pintentry 0004                _EEDATA 0008                _EECON1 0088                _EECON2 0089  
      main@_LCDBLABLA 0021          __end_of_main 0093             main@state 0019  end_of_initialization 00C5  
              _INTEDG 040E                _PCLATH 000A                _INTCON 000B         __pcstackBANK0 000C  
    __end_of_butState 00C5                _OPTION 0081                _TRISA0 0428                _TRISA1 0429  
              _TRISB0 0430                _TRISA2 042A                _TRISB1 0431                _TRISA3 042B  
              _TRISB2 0432                _TRISA4 042C                _TRISB3 0433                _TRISB4 0434  
              _TRISB5 0435                _TRISB6 0436                _TRISB7 0437                _STATUS 0003  
        __size_of_ISR 001C            i1l30000180 009C            i1l30000177 0093            i1l30000178 0097  
          i1l30000179 009B           __end_of_ISR 00AF                saved_w 004F      main@butLastState 0013  
